{
  "watch": ["./"],
  "ext": ".ts,.js,.json,.env",
  "ignore": ["node_modules", "tsconfig.json", "public/*"],
  "exec": "TS_NODE_FILES=true node -r dotenv/config -r ts-node/register -r tsconfig-paths/register --inspect=:9230 ./src/index.ts --files"
}
